C:\Users\shukhandelwal\forceDcode\src\com\deloitte\force\components\DFDEmailTemplate.java
C:\Users\shukhandelwal\forceDcode\src\com\deloitte\force\components\UserSessionDetails.java
C:\Users\shukhandelwal\forceDcode\src\com\deloitte\force\components\DFDUserRole.java
C:\Users\shukhandelwal\forceDcode\src\com\tooling\custom\OAuth2Initialization.java
C:\Users\shukhandelwal\forceDcode\src\com\deloitte\force\components\DFDComponent.java
C:\Users\shukhandelwal\forceDcode\src\com\deloitte\force\components\DFDBusinessProcess.java
C:\Users\shukhandelwal\forceDcode\src\com\deloitte\force\components\DFDPermissionSet.java
C:\Users\shukhandelwal\forceDcode\src\com\deloitte\force\components\DFDWorkflowOutboundMessage.java
C:\Users\shukhandelwal\forceDcode\src\com\tooling\custom\DFDSortMetadata.java
C:\Users\shukhandelwal\forceDcode\src\com\deloitte\force\components\ComponentFactory.java
C:\Users\shukhandelwal\forceDcode\src\com\deloitte\force\components\DFDWorkflowRule.java
C:\Users\shukhandelwal\forceDcode\src\com\deloitte\force\components\DFDRecordType.java
C:\Users\shukhandelwal\forceDcode\src\com\deloitte\force\components\DFDCustomField.java
C:\Users\shukhandelwal\forceDcode\src\com\deloitte\force\components\DFDCustomObjects.java
C:\Users\shukhandelwal\forceDcode\src\com\tooling\helper\MySqlDatabaseConnection.java
C:\Users\shukhandelwal\forceDcode\src\com\deloitte\force\components\DFDWorkflowTask.java
C:\Users\shukhandelwal\forceDcode\src\com\deloitte\force\components\DFDApexComponent.java
C:\Users\shukhandelwal\forceDcode\src\com\deloitte\force\components\DFDValidationRule.java
C:\Users\shukhandelwal\forceDcode\src\com\deloitte\force\components\DFDSharingRules.java
C:\Users\shukhandelwal\forceDcode\src\com\tooling\custom\OAuth2Authorization.java
C:\Users\shukhandelwal\forceDcode\src\com\deloitte\force\components\DFDCustomSettings.java
C:\Users\shukhandelwal\forceDcode\src\com\deloitte\force\components\DFDMetadataComponent.java
C:\Users\shukhandelwal\forceDcode\src\com\deloitte\force\components\DFDApexClass.java
C:\Users\shukhandelwal\forceDcode\src\com\deloitte\force\components\DFDWorkflowAlert.java
C:\Users\shukhandelwal\forceDcode\src\com\deloitte\force\components\DFDVisualForceClass.java
C:\Users\shukhandelwal\forceDcode\src\com\tooling\custom\DDConstants.java
C:\Users\shukhandelwal\forceDcode\src\com\deloitte\force\components\DFDAssignmentRule.java
C:\Users\shukhandelwal\forceDcode\src\com\tooling\custom\DFDesignerResponse.java
C:\Users\shukhandelwal\forceDcode\src\com\deloitte\force\components\DFDApexTrigger.java
C:\Users\shukhandelwal\forceDcode\src\com\tooling\custom\FirstPageClass.java
C:\Users\shukhandelwal\forceDcode\src\com\deloitte\force\components\DFDStaticResource.java
C:\Users\shukhandelwal\forceDcode\src\com\tooling\custom\DFDException.java
C:\Users\shukhandelwal\forceDcode\src\com\deloitte\force\components\LoginDetails.java
C:\Users\shukhandelwal\forceDcode\src\com\deloitte\force\components\DFDCustomTab.java
C:\Users\shukhandelwal\forceDcode\src\com\tooling\custom\DDUtilClass.java
C:\Users\shukhandelwal\forceDcode\src\com\deloitte\force\components\DFDCustomLabel.java
C:\Users\shukhandelwal\forceDcode\src\com\tooling\custom\DocumentGeneratorUtil.java
C:\Users\shukhandelwal\forceDcode\src\com\deloitte\force\components\DFDPageLayout.java
C:\Users\shukhandelwal\forceDcode\src\com\tooling\custom\CallableClass.java
C:\Users\shukhandelwal\forceDcode\src\com\tooling\custom\LoginLogic.java
C:\Users\shukhandelwal\forceDcode\src\com\deloitte\force\components\ComponentSessionDetails.java
C:\Users\shukhandelwal\forceDcode\src\com\deloitte\force\components\DFDProfile.java
C:\Users\shukhandelwal\forceDcode\src\com\deloitte\force\components\DFDWorkflowFieldUpdate.java
C:\Users\shukhandelwal\forceDcode\src\com\deloitte\force\components\DFDApprovalProcess.java
C:\Users\shukhandelwal\forceDcode\src\com\tooling\custom\MainClassHeroku.java
